{
  "messages": [
    "設定信用卡收單行錯誤",
    "信用卡授權失敗餘額不足",
    "信用卡授權失敗交易失敗",
    "信用卡授權失敗帳號不符",
    "信用卡授權失敗交易未經由銀行3D驗證",
    "信用卡授權失敗無效交易",
    "信用卡授權失敗卡號錯誤",
    "請款前取消訂閱",
    "信用卡授權失敗拒絕交易",
    "信用卡授權失敗卡片過期",
    "送出後檢查，信用卡第一碼卡號不符合",
    "信用卡授權失敗3D交易認證錯誤",
    "信用卡授權失敗Error on VEReq.",
    "信用卡授權失敗Auth failure.",
    "信用卡授權失敗Undefined error.",
    "信用卡授權失敗Send socket error.",
    "授權失敗",
    "信用卡授權失敗TSPG error.",
    "信用卡授權失敗請重試交易",
    "信用卡授權失敗無法進行3D驗證",
    "信用卡授權失敗請查詢銀行",
    "信用卡授權失敗_交易失敗",
    "信用卡授權失敗驗證失敗",
    "信用卡授權失敗3D交易銀行回傳逾時",
    "信用卡授權失敗系統錯誤"
  ]
}